---
source: app/tests/mutations/fill_properties.rs
assertion_line: 38
expression: result
snapshot_kind: text
---
{
  "data": {
    "fillProperties": {
      "imported": 188,
      "total": 188
    }
  }
}
