---
source: app/tests/mutations/shared.rs
assertion_line: 176
expression: result
---
{
  "data": null,
  "errors": [
    {
      "message": "Invalid value for argument \"message\", field \"destination\" of type \"String!\" is required but not provided",
      "locations": [
        {
          "line": 1,
          "column": 24
        }
      ]
    }
  ]
}
