---
source: app/tests/mutations/sermons.rs
assertion_line: 35
expression: result
---
{
  "data": {
    "createSermon": {
      "id": "[short-id]",
      "title": "abc",
      "language": "de",
      "talkDate": "2022-06-12T06:21:50.498Z",
      "speaker": "Some Body",
      "tags": [
        "some",
        "tag"
      ],
      "publishDate": "[iso-date]"
    }
  }
}
