---
source: app/tests/routes/images.rs
assertion_line: 87
expression: encoded
---
eyJ3IjpudWxsLCJoIjpudWxsLCJ0ZXh0cyI6W10sImZvb3RlciI6bnVsbCwibWFyZ2lucyI6bnVsbCwiYmFja2dyb3VuZCI6eyJ0eXBlIjoiY29sb3IiLCJjb2xvciI6eyJyIjoxMDAsImciOjgwLCJiIjoyMDB9fX0=
