{
  "status": "success",
  "data": {
    "123456": {
      "60478": {
        "id": "60478",
        "bezeichnung": "Gebetswoche Connectkirche",
        "ort": "Madgeburger Allee 10",
        "intern_yn": "0",
        "startdate": "2022-03-21 06:30:00",
        "enddate": "2022-03-21 07:30:00",
        "old_category_id": "0",
        "category_id": "53",
        "repeat_id": "1",
        "repeat_frequence": "1",
        "repeat_until": "2022-03-26 00:00:00",
        "repeat_option_id": null,
        "connected_group_id": null,
        "grouptype_id": null,
        "template_group_id": null,
        "days_archive_group_no": null,
        "days_forward_no": null,
        "set_completion_date_yn": null,
        "attachments": null,
        "modified_date": "2022-03-11 11:34:09",
        "modified_pid": "1",
        "create_date": "2022-02-01 13:48:42",
        "create_pid": "1",
        "version": "1",
        "modified_name": "Abc L",
        "event_id": null,
        "event_startdate": null,
        "event_template_id": null,
        "bookings": {
          "3040": {
            "id": "3040",
            "minpre": 0,
            "minpost": 0,
            "resource_id": "3",
            "status_id": "2",
            "location": "",
            "note": ""
          }
        }
      }
    }
  }
}
