{
  "status": "success",
  "data": {
    "10": {
      "57207": {
        "id": "57207",
        "bezeichnung": "Persischer Gottesdienst",
        "ort": "Magdeburger Allee 10",
        "intern_yn": "0",
        "startdate": "2021-12-01 18:00:00",
        "enddate": "2021-12-01 19:30:00",
        "old_category_id": "0",
        "category_id": "10",
        "repeat_id": "32",
        "repeat_frequence": "1",
        "repeat_until": "2022-05-02 00:00:00",
        "repeat_option_id": "1",
        "connected_group_id": null,
        "grouptype_id": null,
        "template_group_id": null,
        "days_archive_group_no": null,
        "days_forward_no": null,
        "set_completion_date_yn": null,
        "attachments": null,
        "modified_date": "2021-10-30 19:55:15",
        "modified_pid": "1",
        "create_date": "2021-10-30 19:54:24",
        "create_pid": "1",
        "version": "1",
        "modified_name": "Abc L",
        "event_id": "2283",
        "event_startdate": "2021-12-01 18:00:00",
        "event_template_id": null,
        "bookings": {
          "2964": {
            "id": "2964",
            "minpre": 30,
            "minpost": 30,
            "resource_id": "3",
            "status_id": "2",
            "location": "",
            "note": ""
          },
          "2967": {
            "id": "2967",
            "minpre": 30,
            "minpost": 30,
            "resource_id": "4",
            "status_id": "2",
            "location": "",
            "note": ""
          }
        },
        "csevents": {
          "2283": {
            "id": "2283",
            "startdate": "2021-12-01 18:00:00",
            "service_texts": [],
            "eventTemplate": null,
            "modified_date": "2021-10-30 19:55:15"
          }
        }
      }
    }
  }
}
