{
  "data": {
    "id": 123,
    "guid": "ABC-2402-4C61-AE4C-C61570F2C5D5",
    "securityLevelForPerson": 2,
    "editSecurityLevelForPerson": 2,
    "title": "",
    "firstName": "X",
    "lastName": "Y",
    "nickname": "",
    "street": "Street 1",
    "addressAddition": "",
    "zip": "12345",
    "city": "City",
    "country": "",
    "latitude": 50.1234,
    "longitude": 10.1234,
    "latitudeLoose": null,
    "longitudeLoose": null,
    "phonePrivate": "",
    "phoneWork": "",
    "mobile": "0157/123456",
    "fax": "",
    "birthday": "1995-01-01",
    "imageUrl": "",
    "familyImageUrl": "https://efg-erfurt.church.tools/?q=churchdb/filedownload&filename=&type=image",
    "sexId": 1,
    "email": "mail@mail.com",
    "emails": [
      {
        "email": "mail@mail.com",
        "isDefault": true,
        "contactLabelId": 2
      }
    ],
    "cmsUserId": "exampleuser",
    "privacyPolicyAgreement": [],
    "campusId": 0,
    "departmentIds": [1],
    "canChat": true,
    "invitationStatus": "accepted",
    "chatActive": true,
    "isArchived": false,
    "meta": {
      "createdDate": "2019-10-02T21:01:23Z",
      "createdPerson": {
        "id": -1
      },
      "modifiedDate": "2022-01-30T20:14:10Z",
      "modifiedPerson": {
        "id": -1
      }
    }
  }
}
