---
source: app/tests/query/sermons.rs
assertion_line: 115
expression: result
---
{
  "data": {
    "latestSermons": {
      "count": 3,
      "page": 0,
      "totalPages": 1,
      "totalCount": 3,
      "content": [
        {
          "id": "id-b",
          "title": "title B",
          "comment": "comment",
          "language": "de",
          "speaker": "speaker B",
          "tags": [],
          "textUrl": "text.txt",
          "translationUrl": "en.txt",
          "videoUrl": "video.mp4",
          "audioUrl": "audio.mp3",
          "talkDate": "2020-11-27T19:30:00Z",
          "publishDate": "2020-12-13T19:30:00Z"
        },
        {
          "id": "id-a",
          "title": "title A",
          "comment": null,
          "language": "de",
          "speaker": "speaker A",
          "tags": [
            "a",
            "b"
          ],
          "textUrl": null,
          "translationUrl": null,
          "videoUrl": null,
          "audioUrl": null,
          "talkDate": "2020-11-20T19:30:00Z",
          "publishDate": "2020-12-13T19:30:00Z"
        },
        {
          "id": "id-c",
          "title": "title C",
          "comment": "comment",
          "language": "de",
          "speaker": "speaker C",
          "tags": [],
          "textUrl": "text.txt",
          "translationUrl": "en.txt",
          "videoUrl": "video.mp4",
          "audioUrl": "audio.mp3",
          "talkDate": "2020-08-27T19:30:00Z",
          "publishDate": "2020-08-13T19:30:00Z"
        }
      ]
    }
  }
}
