---
source: app/tests/query/search.rs
assertion_line: 173
expression: result
---
{
  "data": {
    "search": {
      "id": "[uuid]",
      "query": "Gottesdienst",
      "language": "de",
      "events": [
        {
          "id": "60489-c2373",
          "name": "Gottesdienst",
          "date": "2022-12-04T10:00:00Z"
        },
        {
          "id": "60501-c2415",
          "name": "Persischer Gottesdienst",
          "date": "2022-12-07T18:00:00Z"
        },
        {
          "id": "60489-c2376",
          "name": "Gottesdienst",
          "date": "2022-12-11T10:00:00Z"
        },
        {
          "id": "60489-c2379",
          "name": "Gottesdienst",
          "date": "2022-12-18T10:00:00Z"
        },
        {
          "id": "60489-c2382",
          "name": "Gottesdienst",
          "date": "2022-12-25T10:00:00Z"
        }
      ]
    }
  }
}
