---
source: app/tests/query/groups.rs
assertion_line: 52
expression: result
snapshot_kind: text
---
{
  "data": {
    "groups": [
      {
        "id": "abc-118",
        "name": "Biblischer Unterricht (BU)",
        "time": "10.00 - Termine nach Absprache",
        "day": "Sunday",
        "place": "Magdeburger Allee 10, 99086 Erfurt",
        "note": "Du bist zwischen 12 und 14 Jahren alt? Du hast Lust auf Gemeinschaft, tolle Aktionen, Essen und Austausch über spannende Themen des Lebens und des Glaubens? Dann bist du hier richtig! Alle zwei Wochen treffen wir uns am Sonntag, 10.00 in der Gemeinde. Dazu gibt es immer wieder Special-Events und Wochenenden mit dem GJW Thüringen. Wenn du Interesse oder Fragen hast, dann wende dich an Jonas Hölzel. Bei ihm bekommst du auch die aktuellen Termine.\nWir freuen uns auf dich!",
        "imageUrl": "https://efg-erfurt.church.tools/images/4053/46c55c7dba5e84b4d78e49fece7cf24b4b71835ff8c65833a39aab96b8ceedad",
        "ages": "Kinder",
        "canBeContacted": false,
        "contactUrl": "https://efg-erfurt.church.tools/publicgroup/118",
        "leaders": [
          {
            "firstName": "X",
            "lastName": "Y",
            "id": "1"
          }
        ]
      },
      {
        "id": "abc-160",
        "name": "Fußball",
        "time": "16:00",
        "day": "Saturday",
        "place": "Turnhalle am Flughafen, 99090 Erfurt | Sportplatz Azmannsdorf,  Azmannsdorf",
        "note": "Wir treffen uns jeden Samstag von 16-18 Uhr, um gemeinsam Fußball zu spielen. Bei uns geht es fair zu und jeder kann sich ausprobieren. Die Halbzeitpause nutzen wir für eine gemeinsame Andacht. Im Sommer treffen wir uns auf dem Sportplatz in Azmannsdorf, im Winter in der Turnhalle in der Binderslebener Landstraße 91. Herzlich willkommen sind alle Kinder und Erwachsene ab 5 Jahren.",
        "imageUrl": "https://efg-erfurt.church.tools/images/4065/e7185bf04b9362328aab4bce46bd02e6203d9b142e9618ad72157765d86e8133",
        "ages": "Everyone",
        "canBeContacted": false,
        "contactUrl": "https://efg-erfurt.church.tools/publicgroup/160",
        "leaders": []
      },
      {
        "id": "abc-245",
        "name": "JUNO (JugendNord)",
        "time": "19:00",
        "day": "Friday",
        "place": "CVJM Erfurt, 99086 Erfurt",
        "note": "Gemeinschaft, Tiefgang, Spaß – all das erwartet dich bei unserer Jugendgruppe \"JUNO\"! JUNO steht dabei für JugendNord. Wir treffen uns jeden Freitag (außer in den Ferien) in den Räumen des CVJM Erfurt. Ab 19.00 erwartet dich dort spannenden Themen, leckeres Essen, Spiel & Spaß! JUNO ist für alle Jugendlichen ab 14 Jahren. \n\nKomme doch einfach mal vorbei und schaue es dir an! Du findest uns auch bei Instagram unter 'jugendnorderfurt' \n\nWenn du Fragen hast, kannst du uns gerne schreiben. ",
        "imageUrl": "https://efg-erfurt.church.tools/images/6527/3c3b3982257fc06f9a30cba00c61c91ffda2e518e2780bb6119be47c8f579c3b",
        "ages": null,
        "canBeContacted": false,
        "contactUrl": "https://efg-erfurt.church.tools/publicgroup/245",
        "leaders": [
          {
            "firstName": "X",
            "lastName": "Y",
            "id": "1"
          }
        ]
      },
      {
        "id": "abc-8",
        "name": "Kindergottesdienst",
        "time": "10:00",
        "day": "Sunday",
        "place": "Kindergottesdiensträume (Magdeburger Allee 10), 99086 Erfurt",
        "note": "Jesus will dein Freund sein. Wenn du ihn näher kennenlernen willst, bist du willkommen! Wir spielen, singen, lachen und lernen Jesus als unseren Freund kennen.\nFür Kinder von 2-5 Jahren (kleine Gruppe) und 6-12 Jahren (große Gruppe).",
        "imageUrl": "https://efg-erfurt.church.tools/images/4017/7b4804f7d122b3f5225e9f6d484728ca7edafb1efb883ce22c5e7ef671906dba",
        "ages": "Kinder",
        "canBeContacted": false,
        "contactUrl": "https://efg-erfurt.church.tools/publicgroup/8",
        "leaders": []
      },
      {
        "id": "abc-88",
        "name": "Royal Ranger",
        "time": "16:30",
        "day": "Friday",
        "place": "Lutherpark Erfurt, 99092 Erfurt",
        "note": "Pfadfinder sein heißt: gemeinsam Abenteuer erleben! Wir lernen über uns und über die Natur, lernen Knoten und Bünde, Feuer machen und Kochen, den Umgang mit Karte und Kompass und Erste-Hilfe-Maßnahmen. Bei all dem gilt das Prinzip: \"learning by doing\" - selbst anpacken und praktische Erfahrung sammeln. Pfadfinder sein heißt auch: an der Herausforderung wachsen! Kinder und Jugendliche übernehmen ihrem Alter und ihrer Fähigkeit entsprechend Verantwortung. Die Aufgaben sollen uns fordern, aber nicht überfordern. Herausforderungen können körperlich sein, etwa bei Wanderungen oder auf Zeltlagern; aber auch in der Gemeinschaft - zu lernen im Team zu arbeiten und einander zu vertrauen. Wir lernen, in der Gemeinschaft und im Alltag auf Gott zu vertrauen.\nPfadfinder sein heißt nicht zuletzt: die Natur zu erleben.\n\nKontakt und weiter Infos unter:\nhttps://netzwerkgemeinde-erfurt.de/angebote/royal-rangers.html",
        "imageUrl": "https://efg-erfurt.church.tools/images/4164/174d191bf591605e318eb255fa8709b2921f6d2c909dc283cc8f3b7c9c4fe330",
        "ages": "Kinder",
        "canBeContacted": false,
        "contactUrl": "https://efg-erfurt.church.tools/publicgroup/88",
        "leaders": []
      }
    ]
  }
}
